Cleaning Up Datasets: An Example - Porter Pearson's GitHub Site
…
Our Result column is problematic. Let’s turn that W (24-20) into something that we can use.

First, let’s separate the outcome from the score of the game using the separate function.

badlogs %>% separate(Result, into=c("Outcome", "Score"), sep="\\ ")

## # A tibble: 1,662 x 52
##     Game Date     HomeAway Opponent Outcome Score PassingCmp PassingAtt PassingPct
##    <dbl> <chr>    <chr>    <chr>    <chr>   <chr>      <dbl>      <dbl>      <dbl>
##  1     1 8/24/19  N        Miami (~ W       (24-~         17         27       63  
##  2     2 9/7/19   <NA>     Tenness~ W       (45-~         30         36       83.3
##  3     3 9/14/19  @        Kentucky W       (29-~         21         30       70  
##  4     4 9/21/19  <NA>     Tenness~ W       (34-~         24         34       70.6
##  5     5 9/28/19  <NA>     Towson   W       (38-~         24         28       85.7
##  6     6 10/5/19  <NA>     Auburn   W       (24-~         25         39       64.1
##  7     7 10/12/19 @        Louisia~ L       (28-~         24         44       54.5
##  8     8 10/19/19 @        South C~ W       (38-~         21         33       63.6
##  9     9 11/2/19  N        Georgia  L       (17-~         21         33       63.6
## 10    10 11/9/19  <NA>     Vanderb~ W       (56-~         27         40       67.5
## # ... with 1,652 more rows, and 43 more variables: PassingYds <dbl>,
## #   PassingTD <dbl>, RushingAtt <dbl>, RushingYds <dbl>, RushingAvg <dbl>,
## #   RushingTD <dbl>, OffensivePlays <dbl>, OffensiveYards <dbl>,
## #   OffenseAvg <dbl>, FirstDownPass <dbl>, FirstDownRush <dbl>,
## #   FirstDownPen <dbl>, FirstDownTotal <dbl>, Penalties <dbl>,
## #   PenaltyYds <dbl>, Fumbles <dbl>, Interceptions <dbl>, TotalTurnovers <dbl>,
## #   TeamFull <chr>, TeamURL <chr>, DefPassingCmp <dbl>, ...

We now have a functional Outcome column, but our Score column still needs some work.

Chaining a pair of mutates onto our previous work allows us to drop the parentheses.

badlogs %>% 
  separate(Result, into=c("Outcome", "Score"), sep="\\ ") %>% 
  mutate(Score=gsub("\\(", "", Score)) %>%
  mutate(Score=gsub(")", "", Score))

## # A tibble: 1,662 x 52
##     Game Date     HomeAway Opponent Outcome Score PassingCmp PassingAtt PassingPct
##    <dbl> <chr>    <chr>    <chr>    <chr>   <chr>      <dbl>      <dbl>      <dbl>
##  1     1 8/24/19  N        Miami (~ W       24-20         17         27       63  
##  2     2 9/7/19   <NA>     Tenness~ W       45-0          30         36       83.3
##  3     3 9/14/19  @        Kentucky W       29-21         21         30       70  
##  4     4 9/21/19  <NA>     Tenness~ W       34-3          24         34       70.6
##  5     5 9/28/19  <NA>     Towson   W       38-0          24         28       85.7
##  6     6 10/5/19  <NA>     Auburn   W       24-13         25         39       64.1
##  7     7 10/12/19 @        Louisia~ L       28-42         24         44       54.5
##  8     8 10/19/19 @        South C~ W       38-27         21         33       63.6
##  9     9 11/2/19  N        Georgia  L       17-24         21         33       63.6
## 10    10 11/9/19  <NA>     Vanderb~ W       56-0          27         40       67.5
## # ... with 1,652 more rows, and 43 more variables: PassingYds <dbl>,
## #   PassingTD <dbl>, RushingAtt <dbl>, RushingYds <dbl>, RushingAvg <dbl>,
## #   RushingTD <dbl>, OffensivePlays <dbl>, OffensiveYards <dbl>,
## #   OffenseAvg <dbl>, FirstDownPass <dbl>, FirstDownRush <dbl>,
## #   FirstDownPen <dbl>, FirstDownTotal <dbl>, Penalties <dbl>,
## #   PenaltyYds <dbl>, Fumbles <dbl>, Interceptions <dbl>, TotalTurnovers <dbl>,
## #   TeamFull <chr>, TeamURL <chr>, DefPassingCmp <dbl>, ...
…
